^F:\ZOHO C++ ROAD MAP\2. LIBRARY\NOTEPAD\ADDADMIN.CPP
/c /ZI /JMC /nologo /W3 /WX- /diagnostics:column /sdl /Od /Oy- /D WIN32 /D _DEBUG /D _LIB /D _UNICODE /D UNICODE /Gm- /EHsc /RTC1 /MDd /GS /fp:precise /permissive- /Zc:wchar_t /Zc:forScope /Zc:inline /Fo"DEBUG\\" /Fd"DEBUG\NOTEPAD.PDB" /Gd /TP /analyze- /FC F:\ZOHO C++ ROAD MAP\2. LIBRARY\NOTEPAD\ADDADMIN.CPP
^F:\ZOHO C++ ROAD MAP\2. LIBRARY\NOTEPAD\ADMINOPS.CPP
/c /ZI /JMC /nologo /W3 /WX- /diagnostics:column /sdl /Od /Oy- /D WIN32 /D _DEBUG /D _LIB /D _UNICODE /D UNICODE /Gm- /EHsc /RTC1 /MDd /GS /fp:precise /permissive- /Zc:wchar_t /Zc:forScope /Zc:inline /Fo"DEBUG\\" /Fd"DEBUG\NOTEPAD.PDB" /Gd /TP /analyze- /FC F:\ZOHO C++ ROAD MAP\2. LIBRARY\NOTEPAD\ADMINOPS.CPP
^F:\ZOHO C++ ROAD MAP\2. LIBRARY\NOTEPAD\APPENDPROJECT.CPP
/c /ZI /JMC /nologo /W3 /WX- /diagnostics:column /sdl /Od /Oy- /D WIN32 /D _DEBUG /D _LIB /D _UNICODE /D UNICODE /Gm- /EHsc /RTC1 /MDd /GS /fp:precise /permissive- /Zc:wchar_t /Zc:forScope /Zc:inline /Fo"DEBUG\\" /Fd"DEBUG\NOTEPAD.PDB" /Gd /TP /analyze- /FC F:\ZOHO C++ ROAD MAP\2. LIBRARY\NOTEPAD\APPENDPROJECT.CPP
^F:\ZOHO C++ ROAD MAP\2. LIBRARY\NOTEPAD\DISPLAYPROJECTCONTENTS.CPP
/c /ZI /JMC /nologo /W3 /WX- /diagnostics:column /sdl /Od /Oy- /D WIN32 /D _DEBUG /D _LIB /D _UNICODE /D UNICODE /Gm- /EHsc /RTC1 /MDd /GS /fp:precise /permissive- /Zc:wchar_t /Zc:forScope /Zc:inline /Fo"DEBUG\\" /Fd"DEBUG\NOTEPAD.PDB" /Gd /TP /analyze- /FC F:\ZOHO C++ ROAD MAP\2. LIBRARY\NOTEPAD\DISPLAYPROJECTCONTENTS.CPP
^F:\ZOHO C++ ROAD MAP\2. LIBRARY\NOTEPAD\NOTEPAD.CPP
/c /ZI /JMC /nologo /W3 /WX- /diagnostics:column /sdl /Od /Oy- /D WIN32 /D _DEBUG /D _LIB /D _UNICODE /D UNICODE /Gm- /EHsc /RTC1 /MDd /GS /fp:precise /permissive- /Zc:wchar_t /Zc:forScope /Zc:inline /Fo"DEBUG\\" /Fd"DEBUG\NOTEPAD.PDB" /Gd /TP /analyze- /FC F:\ZOHO C++ ROAD MAP\2. LIBRARY\NOTEPAD\NOTEPAD.CPP
^F:\ZOHO C++ ROAD MAP\2. LIBRARY\NOTEPAD\PROJECTDETAILS.PB.CC
/c /ZI /JMC /nologo /W3 /WX- /diagnostics:column /sdl /Od /Oy- /D WIN32 /D _DEBUG /D _LIB /D _UNICODE /D UNICODE /Gm- /EHsc /RTC1 /MDd /GS /fp:precise /permissive- /Zc:wchar_t /Zc:forScope /Zc:inline /Fo"DEBUG\\" /Fd"DEBUG\NOTEPAD.PDB" /Gd /TP /analyze- /FC F:\ZOHO C++ ROAD MAP\2. LIBRARY\NOTEPAD\PROJECTDETAILS.PB.CC
^F:\ZOHO C++ ROAD MAP\2. LIBRARY\NOTEPAD\REMOVEPROJECTCONTENTS.CPP
/c /ZI /JMC /nologo /W3 /WX- /diagnostics:column /sdl /Od /Oy- /D WIN32 /D _DEBUG /D _LIB /D _UNICODE /D UNICODE /Gm- /EHsc /RTC1 /MDd /GS /fp:precise /permissive- /Zc:wchar_t /Zc:forScope /Zc:inline /Fo"DEBUG\\" /Fd"DEBUG\NOTEPAD.PDB" /Gd /TP /analyze- /FC F:\ZOHO C++ ROAD MAP\2. LIBRARY\NOTEPAD\REMOVEPROJECTCONTENTS.CPP
^F:\ZOHO C++ ROAD MAP\2. LIBRARY\NOTEPAD\UPDATEPROJECTCONTENTS.CPP
/c /ZI /JMC /nologo /W3 /WX- /diagnostics:column /sdl /Od /Oy- /D WIN32 /D _DEBUG /D _LIB /D _UNICODE /D UNICODE /Gm- /EHsc /RTC1 /MDd /GS /fp:precise /permissive- /Zc:wchar_t /Zc:forScope /Zc:inline /Fo"DEBUG\\" /Fd"DEBUG\NOTEPAD.PDB" /Gd /TP /analyze- /FC F:\ZOHO C++ ROAD MAP\2. LIBRARY\NOTEPAD\UPDATEPROJECTCONTENTS.CPP
^F:\ZOHO C++ ROAD MAP\2. LIBRARY\NOTEPAD\UPDATEPROJECTDETAILS.CPP
/c /ZI /JMC /nologo /W3 /WX- /diagnostics:column /sdl /Od /Oy- /D WIN32 /D _DEBUG /D _LIB /D _UNICODE /D UNICODE /Gm- /EHsc /RTC1 /MDd /GS /fp:precise /permissive- /Zc:wchar_t /Zc:forScope /Zc:inline /Fo"DEBUG\\" /Fd"DEBUG\NOTEPAD.PDB" /Gd /TP /analyze- /FC F:\ZOHO C++ ROAD MAP\2. LIBRARY\NOTEPAD\UPDATEPROJECTDETAILS.CPP
^F:\ZOHO C++ ROAD MAP\2. LIBRARY\NOTEPAD\USERAUTENTICATION.PB.CC
/c /ZI /JMC /nologo /W3 /WX- /diagnostics:column /sdl /Od /Oy- /D WIN32 /D _DEBUG /D _LIB /D _UNICODE /D UNICODE /Gm- /EHsc /RTC1 /MDd /GS /fp:precise /permissive- /Zc:wchar_t /Zc:forScope /Zc:inline /Fo"DEBUG\\" /Fd"DEBUG\NOTEPAD.PDB" /Gd /TP /analyze- /FC F:\ZOHO C++ ROAD MAP\2. LIBRARY\NOTEPAD\USERAUTENTICATION.PB.CC
^F:\ZOHO C++ ROAD MAP\2. LIBRARY\NOTEPAD\VERSIONCONTROL.CPP
/c /ZI /JMC /nologo /W3 /WX- /diagnostics:column /sdl /Od /Oy- /D WIN32 /D _DEBUG /D _LIB /D _UNICODE /D UNICODE /Gm- /EHsc /RTC1 /MDd /GS /fp:precise /permissive- /Zc:wchar_t /Zc:forScope /Zc:inline /Fo"DEBUG\\" /Fd"DEBUG\NOTEPAD.PDB" /Gd /TP /analyze- /FC F:\ZOHO C++ ROAD MAP\2. LIBRARY\NOTEPAD\VERSIONCONTROL.CPP
^F:\ZOHO C++ ROAD MAP\2. LIBRARY\NOTEPAD\CREATEPROJECT.CPP
/c /ZI /JMC /nologo /W3 /WX- /diagnostics:column /sdl /Od /Oy- /D WIN32 /D _DEBUG /D _LIB /D _UNICODE /D UNICODE /Gm- /EHsc /RTC1 /MDd /GS /fp:precise /permissive- /Zc:wchar_t /Zc:forScope /Zc:inline /Fo"DEBUG\\" /Fd"DEBUG\NOTEPAD.PDB" /Gd /TP /analyze- /FC F:\ZOHO C++ ROAD MAP\2. LIBRARY\NOTEPAD\CREATEPROJECT.CPP
