^F:\PROTOBUF-2.6.1\VSPROJECTS\DEBUG\LIBPROTOBUF.LIB|F:\ZOHO C++ ROAD MAP\2. LIBRARY\NOTEPAD\DEBUG\ADDADMIN.OBJ|F:\ZOHO C++ ROAD MAP\2. LIBRARY\NOTEPAD\DEBUG\ADMINOPS.OBJ|F:\ZOHO C++ ROAD MAP\2. LIBRARY\NOTEPAD\DEBUG\APPENDPROJECT.OBJ|F:\ZOHO C++ ROAD MAP\2. LIBRARY\NOTEPAD\DEBUG\CREATEPROJECT.OBJ|F:\ZOHO C++ ROAD MAP\2. LIBRARY\NOTEPAD\DEBUG\DISPLAYPROJECTCONTENTS.OBJ|F:\ZOHO C++ ROAD MAP\2. LIBRARY\NOTEPAD\DEBUG\NOTEPAD.OBJ|F:\ZOHO C++ ROAD MAP\2. LIBRARY\NOTEPAD\DEBUG\PROJECTDETAILS.PB.OBJ|F:\ZOHO C++ ROAD MAP\2. LIBRARY\NOTEPAD\DEBUG\REMOVEPROJECTCONTENTS.OBJ|F:\ZOHO C++ ROAD MAP\2. LIBRARY\NOTEPAD\DEBUG\UPDATEPROJECTCONTENTS.OBJ|F:\ZOHO C++ ROAD MAP\2. LIBRARY\NOTEPAD\DEBUG\UPDATEPROJECTDETAILS.OBJ|F:\ZOHO C++ ROAD MAP\2. LIBRARY\NOTEPAD\DEBUG\USERAUTENTICATION.PB.OBJ|F:\ZOHO C++ ROAD MAP\2. LIBRARY\NOTEPAD\DEBUG\VERSIONCONTROL.OBJ
F:\ZOHO C++ ROAD MAP\2. LIBRARY\NOTEPAD\DEBUG\ADDADMIN.OBJ
C:\WINDOWS\SYSTEM32\TZRES.DLL
F:\ZOHO C++ ROAD MAP\2. LIBRARY\NOTEPAD\DEBUG\ADMINOPS.OBJ
F:\ZOHO C++ ROAD MAP\2. LIBRARY\NOTEPAD\DEBUG\APPENDPROJECT.OBJ
F:\ZOHO C++ ROAD MAP\2. LIBRARY\NOTEPAD\DEBUG\CREATEPROJECT.OBJ
F:\ZOHO C++ ROAD MAP\2. LIBRARY\NOTEPAD\DEBUG\DISPLAYPROJECTCONTENTS.OBJ
F:\ZOHO C++ ROAD MAP\2. LIBRARY\NOTEPAD\DEBUG\NOTEPAD.OBJ
F:\ZOHO C++ ROAD MAP\2. LIBRARY\NOTEPAD\DEBUG\PROJECTDETAILS.PB.OBJ
F:\ZOHO C++ ROAD MAP\2. LIBRARY\NOTEPAD\DEBUG\REMOVEPROJECTCONTENTS.OBJ
F:\ZOHO C++ ROAD MAP\2. LIBRARY\NOTEPAD\DEBUG\UPDATEPROJECTCONTENTS.OBJ
F:\ZOHO C++ ROAD MAP\2. LIBRARY\NOTEPAD\DEBUG\UPDATEPROJECTDETAILS.OBJ
F:\ZOHO C++ ROAD MAP\2. LIBRARY\NOTEPAD\DEBUG\USERAUTENTICATION.PB.OBJ
F:\ZOHO C++ ROAD MAP\2. LIBRARY\NOTEPAD\DEBUG\VERSIONCONTROL.OBJ
F:\PROTOBUF-2.6.1\VSPROJECTS\DEBUG\LIBPROTOBUF.LIB
C:\WINDOWS\GLOBALIZATION\SORTING\SORTDEFAULT.NLS
