^F:\ZOHO C++ ROAD MAP\2. LIBRARY\NOTEPADAPP\DEBUG\NOTEPADAPP.OBJ|F:\ZOHO C++ ROAD MAP\2. LIBRARY\NOTEPAD\DEBUG\NOTEPAD.LIB
/OUT:"F:\ZOHO C++ ROAD MAP\2. LIBRARY\NOTEPAD\DEBUG\NOTEPADAPP.EXE" /INCREMENTAL /NOLOGO KERNEL32.LIB USER32.LIB GDI32.LIB WINSPOOL.LIB COMDLG32.LIB ADVAPI32.LIB SHELL32.LIB OLE32.LIB OLEAUT32.LIB UUID.LIB ODBC32.LIB ODBCCP32.LIB /MANIFEST /MANIFESTUAC:"level='asInvoker' uiAccess='false'" /manifest:embed /DEBUG:FASTLINK /PDB:"F:\ZOHO C++ ROAD MAP\2. LIBRARY\NOTEPAD\DEBUG\NOTEPADAPP.PDB" /SUBSYSTEM:CONSOLE /TLBID:1 /DYNAMICBASE /NXCOMPAT /IMPLIB:"F:\ZOHO C++ ROAD MAP\2. LIBRARY\NOTEPAD\DEBUG\NOTEPADAPP.LIB" /MACHINE:X86 DEBUG\NOTEPADAPP.OBJ
"F:\ZOHO C++ ROAD MAP\2. LIBRARY\NOTEPAD\DEBUG\NOTEPAD.LIB"
